{
  "__inputs": [
    {
      "name": "DS_INFLUXDB_SENSORS",
      "label": "InfluxDB_Sensors",
      "description": "",
      "type": "datasource",
      "pluginId": "influxdb",
      "pluginName": "InfluxDB"
    }
  ],
  "__elements": {},
  "__requires": [
    {
      "type": "grafana",
      "id": "grafana",
      "name": "Grafana",
      "version": "9.0.6"
    },
    {
      "type": "panel",
      "id": "histogram",
      "name": "Histogram",
      "version": ""
    },
    {
      "type": "datasource",
      "id": "influxdb",
      "name": "InfluxDB",
      "version": "1.0.0"
    },
    {
      "type": "panel",
      "id": "stat",
      "name": "Stat",
      "version": ""
    },
    {
      "type": "panel",
      "id": "timeseries",
      "name": "Time series",
      "version": ""
    }
  ],
  "annotations": {
    "list": [
      {
        "builtIn": 1,
        "datasource": {
          "type": "grafana",
          "uid": "-- Grafana --"
        },
        "enable": true,
        "hide": true,
        "iconColor": "rgba(0, 211, 255, 1)",
        "name": "Annotations & Alerts",
        "target": {
          "limit": 100,
          "matchAny": false,
          "tags": [],
          "type": "dashboard"
        },
        "type": "dashboard"
      }
    ]
  },
  "editable": true,
  "fiscalYearStartMonth": 0,
  "graphTooltip": 0,
  "id": null,
  "links": [],
  "liveNow": false,
  "panels": [
    {
      "datasource": {
        "type": "influxdb",
        "uid": "${DS_INFLUXDB_SENSORS}"
      },
      "fieldConfig": {
        "defaults": {
          "color": {
            "fixedColor": "green",
            "mode": "fixed"
          },
          "custom": {
            "axisLabel": "",
            "axisPlacement": "auto",
            "barAlignment": 0,
            "drawStyle": "line",
            "fillOpacity": 20,
            "gradientMode": "none",
            "hideFrom": {
              "legend": false,
              "tooltip": false,
              "viz": false
            },
            "lineInterpolation": "smooth",
            "lineStyle": {
              "fill": "solid"
            },
            "lineWidth": 1,
            "pointSize": 5,
            "scaleDistribution": {
              "type": "linear"
            },
            "showPoints": "auto",
            "spanNulls": 3600000,
            "stacking": {
              "group": "A",
              "mode": "none"
            },
            "thresholdsStyle": {
              "mode": "off"
            }
          },
          "mappings": [],
          "thresholds": {
            "mode": "absolute",
            "steps": [
              {
                "color": "green",
                "value": null
              },
              {
                "color": "red",
                "value": 80
              }
            ]
          },
          "unit": "none"
        },
        "overrides": [
          {
            "matcher": {
              "id": "byName",
              "options": "AC"
            },
            "properties": [
              {
                "id": "color",
                "value": {
                  "fixedColor": "blue",
                  "mode": "fixed"
                }
              }
            ]
          }
        ]
      },
      "gridPos": {
        "h": 27,
        "w": 18,
        "x": 0,
        "y": 0
      },
      "id": 2,
      "options": {
        "legend": {
          "calcs": [],
          "displayMode": "list",
          "placement": "bottom"
        },
        "tooltip": {
          "mode": "single",
          "sort": "none"
        }
      },
      "targets": [
        {
          "datasource": {
            "type": "influxdb",
            "uid": "${DS_INFLUXDB_SENSORS}"
          },
          "groupBy": [
            {
              "params": [
                "$interval"
              ],
              "type": "time"
            },
            {
              "params": [
                "coupling"
              ],
              "type": "tag"
            }
          ],
          "hide": false,
          "measurement": "B35T",
          "orderByTime": "ASC",
          "policy": "default",
          "query": "SELECT mean(\"value\") FROM \"B35T\" WHERE (\"unit\" =~ /^$Metric$/) AND $timeFilter GROUP BY time($interval), \"coupling\" fill(previous)",
          "rawQuery": false,
          "refId": "A",
          "resultFormat": "time_series",
          "select": [
            [
              {
                "params": [
                  "value"
                ],
                "type": "field"
              },
              {
                "params": [],
                "type": "mean"
              }
            ]
          ],
          "tags": [
            {
              "key": "unit",
              "operator": "=~",
              "value": "/^$Metric$/"
            }
          ]
        }
      ],
      "title": "B35T $Metric Measurement",
      "transformations": [
        {
          "id": "renameByRegex",
          "options": {
            "regex": "^.*\\:\\ (.+?)\\}.*$",
            "renamePattern": "$1"
          }
        }
      ],
      "type": "timeseries"
    },
    {
      "datasource": {
        "type": "influxdb",
        "uid": "${DS_INFLUXDB_SENSORS}"
      },
      "fieldConfig": {
        "defaults": {
          "color": {
            "fixedColor": "yellow",
            "mode": "fixed"
          },
          "mappings": [],
          "thresholds": {
            "mode": "absolute",
            "steps": [
              {
                "color": "green",
                "value": null
              },
              {
                "color": "red",
                "value": 80
              }
            ]
          },
          "unit": "none"
        },
        "overrides": []
      },
      "gridPos": {
        "h": 4,
        "w": 3,
        "x": 18,
        "y": 0
      },
      "id": 11,
      "options": {
        "colorMode": "value",
        "graphMode": "area",
        "justifyMode": "auto",
        "orientation": "auto",
        "reduceOptions": {
          "calcs": [
            "mean"
          ],
          "fields": "",
          "values": true
        },
        "textMode": "auto"
      },
      "pluginVersion": "9.0.6",
      "targets": [
        {
          "datasource": {
            "type": "influxdb",
            "uid": "${DS_INFLUXDB_SENSORS}"
          },
          "groupBy": [
            {
              "params": [
                "coupling"
              ],
              "type": "tag"
            }
          ],
          "measurement": "B35T",
          "orderByTime": "ASC",
          "policy": "default",
          "refId": "A",
          "resultFormat": "time_series",
          "select": [
            [
              {
                "params": [
                  "value"
                ],
                "type": "field"
              },
              {
                "params": [],
                "type": "last"
              }
            ]
          ],
          "tags": [
            {
              "condition": "AND",
              "key": "unit",
              "operator": "=~",
              "value": "/^$Metric$/"
            }
          ]
        }
      ],
      "title": "Actual",
      "transformations": [
        {
          "id": "renameByRegex",
          "options": {
            "regex": "^.*\\:\\ (.+?)\\}.*$",
            "renamePattern": "$1"
          }
        }
      ],
      "type": "stat"
    },
    {
      "datasource": {
        "type": "influxdb",
        "uid": "${DS_INFLUXDB_SENSORS}"
      },
      "fieldConfig": {
        "defaults": {
          "color": {
            "fixedColor": "purple",
            "mode": "fixed"
          },
          "mappings": [],
          "thresholds": {
            "mode": "absolute",
            "steps": [
              {
                "color": "green",
                "value": null
              },
              {
                "color": "red",
                "value": 80
              }
            ]
          },
          "unit": "none"
        },
        "overrides": []
      },
      "gridPos": {
        "h": 4,
        "w": 3,
        "x": 21,
        "y": 0
      },
      "id": 13,
      "options": {
        "colorMode": "value",
        "graphMode": "area",
        "justifyMode": "auto",
        "orientation": "auto",
        "reduceOptions": {
          "calcs": [
            "mean"
          ],
          "fields": "",
          "values": true
        },
        "textMode": "auto"
      },
      "pluginVersion": "9.0.6",
      "targets": [
        {
          "datasource": {
            "type": "influxdb",
            "uid": "${DS_INFLUXDB_SENSORS}"
          },
          "groupBy": [
            {
              "params": [
                "coupling"
              ],
              "type": "tag"
            }
          ],
          "measurement": "B35T",
          "orderByTime": "ASC",
          "policy": "default",
          "refId": "A",
          "resultFormat": "time_series",
          "select": [
            [
              {
                "params": [
                  "value"
                ],
                "type": "field"
              },
              {
                "params": [],
                "type": "count"
              }
            ]
          ],
          "tags": [
            {
              "condition": "AND",
              "key": "unit",
              "operator": "=~",
              "value": "/^$Metric$/"
            }
          ]
        }
      ],
      "title": "Count",
      "transformations": [
        {
          "id": "renameByRegex",
          "options": {
            "regex": "^.*\\:\\ (.+?)\\}.*$",
            "renamePattern": "$1"
          }
        }
      ],
      "type": "stat"
    },
    {
      "datasource": {
        "type": "influxdb",
        "uid": "${DS_INFLUXDB_SENSORS}"
      },
      "fieldConfig": {
        "defaults": {
          "color": {
            "fixedColor": "green",
            "mode": "fixed"
          },
          "mappings": [],
          "thresholds": {
            "mode": "absolute",
            "steps": [
              {
                "color": "green",
                "value": null
              },
              {
                "color": "red",
                "value": 80
              }
            ]
          },
          "unit": "none"
        },
        "overrides": []
      },
      "gridPos": {
        "h": 4,
        "w": 3,
        "x": 18,
        "y": 4
      },
      "id": 5,
      "options": {
        "colorMode": "value",
        "graphMode": "none",
        "justifyMode": "auto",
        "orientation": "auto",
        "reduceOptions": {
          "calcs": [
            "mean"
          ],
          "fields": "",
          "values": true
        },
        "textMode": "auto"
      },
      "pluginVersion": "9.0.6",
      "targets": [
        {
          "datasource": {
            "type": "influxdb",
            "uid": "${DS_INFLUXDB_SENSORS}"
          },
          "groupBy": [
            {
              "params": [
                "coupling"
              ],
              "type": "tag"
            }
          ],
          "measurement": "B35T",
          "orderByTime": "ASC",
          "policy": "default",
          "refId": "A",
          "resultFormat": "time_series",
          "select": [
            [
              {
                "params": [
                  "value"
                ],
                "type": "field"
              },
              {
                "params": [],
                "type": "mean"
              }
            ]
          ],
          "tags": [
            {
              "condition": "AND",
              "key": "unit",
              "operator": "=~",
              "value": "/^$Metric$/"
            }
          ]
        }
      ],
      "title": "Mean",
      "transformations": [
        {
          "id": "renameByRegex",
          "options": {
            "regex": "^.*\\:\\ (.+?)\\}.*$",
            "renamePattern": "$1"
          }
        }
      ],
      "type": "stat"
    },
    {
      "datasource": {
        "type": "influxdb",
        "uid": "${DS_INFLUXDB_SENSORS}"
      },
      "fieldConfig": {
        "defaults": {
          "color": {
            "fixedColor": "super-light-green",
            "mode": "fixed"
          },
          "mappings": [],
          "thresholds": {
            "mode": "absolute",
            "steps": [
              {
                "color": "green",
                "value": null
              },
              {
                "color": "red",
                "value": 80
              }
            ]
          },
          "unit": "none"
        },
        "overrides": []
      },
      "gridPos": {
        "h": 4,
        "w": 3,
        "x": 21,
        "y": 4
      },
      "id": 14,
      "options": {
        "colorMode": "value",
        "graphMode": "none",
        "justifyMode": "auto",
        "orientation": "auto",
        "reduceOptions": {
          "calcs": [
            "mean"
          ],
          "fields": "",
          "values": true
        },
        "textMode": "auto"
      },
      "pluginVersion": "9.0.6",
      "targets": [
        {
          "datasource": {
            "type": "influxdb",
            "uid": "${DS_INFLUXDB_SENSORS}"
          },
          "groupBy": [
            {
              "params": [
                "coupling"
              ],
              "type": "tag"
            }
          ],
          "measurement": "B35T",
          "orderByTime": "ASC",
          "policy": "default",
          "refId": "A",
          "resultFormat": "time_series",
          "select": [
            [
              {
                "params": [
                  "value"
                ],
                "type": "field"
              },
              {
                "params": [],
                "type": "median"
              }
            ]
          ],
          "tags": [
            {
              "condition": "AND",
              "key": "unit",
              "operator": "=~",
              "value": "/^$Metric$/"
            }
          ]
        }
      ],
      "title": "Median",
      "transformations": [
        {
          "id": "renameByRegex",
          "options": {
            "regex": "^.*\\:\\ (.+?)\\}.*$",
            "renamePattern": "$1"
          }
        }
      ],
      "type": "stat"
    },
    {
      "datasource": {
        "type": "influxdb",
        "uid": "${DS_INFLUXDB_SENSORS}"
      },
      "fieldConfig": {
        "defaults": {
          "color": {
            "fixedColor": "red",
            "mode": "fixed"
          },
          "mappings": [],
          "thresholds": {
            "mode": "absolute",
            "steps": [
              {
                "color": "green",
                "value": null
              },
              {
                "color": "red",
                "value": 80
              }
            ]
          },
          "unit": "none"
        },
        "overrides": []
      },
      "gridPos": {
        "h": 4,
        "w": 3,
        "x": 18,
        "y": 8
      },
      "id": 7,
      "options": {
        "colorMode": "value",
        "graphMode": "none",
        "justifyMode": "auto",
        "orientation": "auto",
        "reduceOptions": {
          "calcs": [
            "mean"
          ],
          "fields": "",
          "values": true
        },
        "textMode": "auto"
      },
      "pluginVersion": "9.0.6",
      "targets": [
        {
          "datasource": {
            "type": "influxdb",
            "uid": "${DS_INFLUXDB_SENSORS}"
          },
          "groupBy": [
            {
              "params": [
                "coupling"
              ],
              "type": "tag"
            }
          ],
          "measurement": "B35T",
          "orderByTime": "ASC",
          "policy": "default",
          "refId": "A",
          "resultFormat": "time_series",
          "select": [
            [
              {
                "params": [
                  "value"
                ],
                "type": "field"
              },
              {
                "params": [],
                "type": "max"
              }
            ]
          ],
          "tags": [
            {
              "condition": "AND",
              "key": "unit",
              "operator": "=~",
              "value": "/^$Metric$/"
            }
          ]
        }
      ],
      "title": "Maximum",
      "transformations": [
        {
          "id": "renameByRegex",
          "options": {
            "regex": "^.*\\:\\ (.+?)\\}.*$",
            "renamePattern": "$1"
          }
        }
      ],
      "type": "stat"
    },
    {
      "datasource": {
        "type": "influxdb",
        "uid": "${DS_INFLUXDB_SENSORS}"
      },
      "fieldConfig": {
        "defaults": {
          "color": {
            "fixedColor": "blue",
            "mode": "fixed"
          },
          "mappings": [],
          "thresholds": {
            "mode": "absolute",
            "steps": [
              {
                "color": "green",
                "value": null
              },
              {
                "color": "red",
                "value": 80
              }
            ]
          },
          "unit": "none"
        },
        "overrides": []
      },
      "gridPos": {
        "h": 4,
        "w": 3,
        "x": 21,
        "y": 8
      },
      "id": 6,
      "options": {
        "colorMode": "value",
        "graphMode": "none",
        "justifyMode": "auto",
        "orientation": "auto",
        "reduceOptions": {
          "calcs": [
            "mean"
          ],
          "fields": "",
          "values": true
        },
        "textMode": "auto"
      },
      "pluginVersion": "9.0.6",
      "targets": [
        {
          "datasource": {
            "type": "influxdb",
            "uid": "${DS_INFLUXDB_SENSORS}"
          },
          "groupBy": [
            {
              "params": [
                "coupling"
              ],
              "type": "tag"
            }
          ],
          "measurement": "B35T",
          "orderByTime": "ASC",
          "policy": "default",
          "refId": "A",
          "resultFormat": "time_series",
          "select": [
            [
              {
                "params": [
                  "value"
                ],
                "type": "field"
              },
              {
                "params": [],
                "type": "min"
              }
            ]
          ],
          "tags": [
            {
              "condition": "AND",
              "key": "unit",
              "operator": "=~",
              "value": "/^$Metric$/"
            }
          ]
        }
      ],
      "title": "Minumum",
      "transformations": [
        {
          "id": "renameByRegex",
          "options": {
            "regex": "^.*\\:\\ (.+?)\\}.*$",
            "renamePattern": "$1"
          }
        }
      ],
      "type": "stat"
    },
    {
      "datasource": {
        "type": "influxdb",
        "uid": "${DS_INFLUXDB_SENSORS}"
      },
      "fieldConfig": {
        "defaults": {
          "color": {
            "fixedColor": "green",
            "mode": "fixed"
          },
          "custom": {
            "fillOpacity": 20,
            "gradientMode": "none",
            "hideFrom": {
              "legend": false,
              "tooltip": false,
              "viz": false
            },
            "lineWidth": 1
          },
          "mappings": [],
          "thresholds": {
            "mode": "absolute",
            "steps": [
              {
                "color": "green",
                "value": null
              },
              {
                "color": "red",
                "value": 80
              }
            ]
          },
          "unit": "none"
        },
        "overrides": [
          {
            "matcher": {
              "id": "byName",
              "options": "AC"
            },
            "properties": [
              {
                "id": "color",
                "value": {
                  "fixedColor": "blue",
                  "mode": "fixed"
                }
              }
            ]
          }
        ]
      },
      "gridPos": {
        "h": 15,
        "w": 6,
        "x": 18,
        "y": 12
      },
      "id": 12,
      "options": {
        "bucketOffset": 0,
        "combine": false,
        "legend": {
          "calcs": [],
          "displayMode": "list",
          "placement": "bottom"
        }
      },
      "targets": [
        {
          "datasource": {
            "type": "influxdb",
            "uid": "${DS_INFLUXDB_SENSORS}"
          },
          "groupBy": [
            {
              "params": [
                "coupling"
              ],
              "type": "tag"
            }
          ],
          "hide": false,
          "measurement": "B35T",
          "orderByTime": "ASC",
          "policy": "default",
          "refId": "A",
          "resultFormat": "time_series",
          "select": [
            [
              {
                "params": [
                  "value"
                ],
                "type": "field"
              }
            ]
          ],
          "tags": [
            {
              "key": "unit",
              "operator": "=~",
              "value": "/^$Metric$/"
            }
          ]
        }
      ],
      "title": "B35T $Metric Distribution",
      "transformations": [
        {
          "id": "renameByRegex",
          "options": {
            "regex": "^.*\\:\\ (.+?)\\}.*$",
            "renamePattern": "$1"
          }
        }
      ],
      "type": "histogram"
    }
  ],
  "refresh": "5s",
  "schemaVersion": 36,
  "style": "dark",
  "tags": [],
  "templating": {
    "list": [
      {
        "current": {},
        "datasource": {
          "type": "influxdb",
          "uid": "${DS_INFLUXDB_SENSORS}"
        },
        "definition": "SHOW TAG VALUES WITH KEY = \"unit\"",
        "hide": 0,
        "includeAll": false,
        "multi": false,
        "name": "Metric",
        "options": [],
        "query": "SHOW TAG VALUES WITH KEY = \"unit\"",
        "refresh": 1,
        "regex": "",
        "skipUrlSync": false,
        "sort": 1,
        "type": "query"
      }
    ]
  },
  "time": {
    "from": "now-5m",
    "to": "now"
  },
  "timepicker": {},
  "timezone": "",
  "title": "B35T",
  "uid": "2zgKv-gRk",
  "version": 8,
  "weekStart": ""
}